\relax 
\providecommand\hyper@newdestlabel[2]{}
\providecommand\HyperFirstAtBeginDocument{\AtBeginDocument}
\HyperFirstAtBeginDocument{\ifx\hyper@anchor\@undefined
\global\let\oldcontentsline\contentsline
\gdef\contentsline#1#2#3#4{\oldcontentsline{#1}{#2}{#3}}
\global\let\oldnewlabel\newlabel
\gdef\newlabel#1#2{\newlabelxx{#1}#2}
\gdef\newlabelxx#1#2#3#4#5#6{\oldnewlabel{#1}{{#2}{#3}}}
\AtEndDocument{\ifx\hyper@anchor\@undefined
\let\contentsline\oldcontentsline
\let\newlabel\oldnewlabel
\fi}
\fi}
\global\let\hyper@last\relax 
\gdef\HyperFirstAtBeginDocument#1{#1}
\providecommand\HyField@AuxAddToFields[1]{}
\providecommand\HyField@AuxAddToCoFields[2]{}
\babel@aux{english}{}
\@writefile{toc}{\contentsline {chapter}{\numberline {0}Preliminaries}{5}{chapter.0}}
\@writefile{lof}{\addvspace {10\p@ }}
\@writefile{lot}{\addvspace {10\p@ }}
\@writefile{toc}{\contentsline {part}{I\hspace  {1em}Algebraic Geometry I}{6}{part.1}}
\@writefile{toc}{\contentsline {chapter}{\numberline {1}Affine and Projective Varieties}{7}{chapter.1}}
\@writefile{lof}{\addvspace {10\p@ }}
\@writefile{lot}{\addvspace {10\p@ }}
\@writefile{toc}{\contentsline {section}{\numberline {1.1}Affine Varieties}{7}{section.1.1}}
\newlabel{aas}{{1.1}{7}{affine algebraic set}{lemma.1.1}{}}
\newlabel{aas@cref}{{[definition][1][1]1.1}{[1][7][]7}}
\newlabel{Vsurj}{{1.2}{7}{}{lemma.1.2}{}}
\newlabel{Vsurj@cref}{{[remark][2][1]1.2}{[1][7][]7}}
\newlabel{NN}{{1.6}{9}{Noether normalization}{lemma.1.6}{}}
\newlabel{NN@cref}{{[theorem][6][1]1.6}{[1][9][]9}}
\newlabel{HNS}{{1.7}{9}{Hilbert's Nullstellensatz}{lemma.1.7}{}}
\newlabel{HNS@cref}{{[theorem][7][1]1.7}{[1][9][]9}}
\newlabel{VI}{{1.8}{10}{}{lemma.1.8}{}}
\newlabel{VI@cref}{{[corollary][8][1]1.8}{[1][10][]10}}
\newlabel{VI2}{{1.11}{10}{}{lemma.1.11}{}}
\newlabel{VI2@cref}{{[lemma][11][1]1.11}{[1][10][]10}}
\@writefile{lof}{\contentsline {figure}{\numberline {1.1.1}{\ignorespaces $V((x-y)(x+y)$ is not irreducible}}{11}{figure.1.1.1}}
\@writefile{lof}{\contentsline {figure}{\numberline {1.1.2}{\ignorespaces $V(y - x^2), f(x,y) = x$ (in $\mathbb  {R}^2$)}}{12}{figure.1.1.2}}
\@writefile{toc}{\contentsline {section}{\numberline {1.2}Projective Varieties}{13}{section.1.2}}
\@writefile{toc}{\contentsline {chapter}{\numberline {2}Sheaves}{16}{chapter.2}}
\@writefile{lof}{\addvspace {10\p@ }}
\@writefile{lot}{\addvspace {10\p@ }}
\@writefile{toc}{\contentsline {section}{\numberline {2.1}Basic Constructions and Sheafification}{16}{section.2.1}}
\@writefile{toc}{\contentsline {section}{\numberline {2.2}Structure Sheaf}{19}{section.2.2}}
\@writefile{toc}{\contentsline {chapter}{\numberline {3}Prevarieties}{20}{chapter.3}}
\@writefile{lof}{\addvspace {10\p@ }}
\@writefile{lot}{\addvspace {10\p@ }}
\@writefile{toc}{\contentsline {section}{\numberline {3.1}The Category of Prevarieties}{20}{section.3.1}}
\@writefile{toc}{\contentsline {section}{\numberline {3.2}Affine Varieties as Prevarietes}{21}{section.3.2}}
\newlabel{ICR}{{3.5}{21}{}{lemma.3.5}{}}
\newlabel{ICR@cref}{{[proposition][5][3]3.5}{[1][21][]21}}
\@writefile{toc}{\contentsline {section}{\numberline {3.3}Projective Varieties as Prevarieties}{23}{section.3.3}}
\newlabel{MPV}{{3.11}{24}{}{lemma.3.11}{}}
\newlabel{MPV@cref}{{[proposition][11][3]3.11}{[1][24][]24}}
\@writefile{lof}{\contentsline {figure}{\numberline {3.3.1}{\ignorespaces Solutions of $Y^2=X(X^2-1)$ in $\mathbb  {R}^2$}}{26}{figure.3.3.1}}
\@writefile{lof}{\contentsline {figure}{\numberline {3.3.2}{\ignorespaces As a slice of a torus}}{26}{figure.3.3.2}}
\@writefile{lof}{\contentsline {figure}{\numberline {3.3.3}{\ignorespaces The line $L$ through $P, Q, P_0$}}{27}{figure.3.3.3}}
\@writefile{lof}{\contentsline {figure}{\numberline {3.3.4}{\ignorespaces Solutions of $Y^2=X(X^2+1)$ in $\mathbb  {R}^2$ (Case $\lambda = 1$)}}{29}{figure.3.3.4}}
\@writefile{toc}{\contentsline {section}{\numberline {3.4}Products}{29}{section.3.4}}
\newlabel{DefProd}{{3.12}{29}{products}{lemma.3.12}{}}
\newlabel{DefProd@cref}{{[definition][12][3]3.12}{[1][29][]29}}
\newlabel{HEP}{{3.13}{30}{}{lemma.3.13}{}}
\newlabel{HEP@cref}{{[proposition][13][3]3.13}{[1][30][]30}}
\newlabel{EP}{{3.14}{30}{}{lemma.3.14}{}}
\newlabel{EP@cref}{{[theorem][14][3]3.14}{[1][30][]30}}
\newlabel{ExIndSh}{{3.17}{32}{}{lemma.3.17}{}}
\newlabel{ExIndSh@cref}{{[proposition][17][3]3.17}{[1][32][]32}}
\@writefile{toc}{\contentsline {chapter}{\numberline {4}Varieties}{35}{chapter.4}}
\@writefile{lof}{\addvspace {10\p@ }}
\@writefile{lot}{\addvspace {10\p@ }}
\@writefile{toc}{\contentsline {section}{\numberline {4.1}Seperatedness}{35}{section.4.1}}
\newlabel{defVar}{{4.1}{35}{variety, seperatedness}{lemma.4.1}{}}
\newlabel{defVar@cref}{{[definition][1][4]4.1}{[1][35][]35}}
\@writefile{lof}{\contentsline {figure}{\numberline {4.1.1}{\ignorespaces line with two origins}}{36}{figure.4.1.1}}
\newlabel{lemPS}{{4.2}{36}{}{lemma.4.2}{}}
\newlabel{lemPS@cref}{{[proposition][2][4]4.2}{[1][36][]36}}
\newlabel{defVar2}{{4.3}{36}{}{lemma.4.3}{}}
\newlabel{defVar2@cref}{{[proposition][3][4]4.3}{[1][36][]36}}
\@writefile{toc}{\contentsline {section}{\numberline {4.2}Function Field}{37}{section.4.2}}
\newlabel{dense}{{4.4}{37}{}{lemma.4.4}{}}
\newlabel{dense@cref}{{[lemma][4][4]4.4}{[1][37][]37}}
\@writefile{toc}{\contentsline {section}{\numberline {4.3}Dimensions}{39}{section.4.3}}
\newlabel{y^2=x^2(x+1)}{{4.17}{40}{}{lemma.4.17}{}}
\newlabel{y^2=x^2(x+1)@cref}{{[remark][17][4]4.17}{[1][39][]40}}
\@writefile{lof}{\contentsline {figure}{\numberline {4.2.1}{\ignorespaces $y^2=x^2(x+1)$}}{40}{figure.4.2.1}}
\newlabel{dim<}{{4.20}{40}{}{lemma.4.20}{}}
\newlabel{dim<@cref}{{[proposition][20][4]4.20}{[1][40][]40}}
\newlabel{Krull}{{4.22}{41}{Krull Principal Ideal Theorem}{lemma.4.22}{}}
\newlabel{Krull@cref}{{[theorem][22][4]4.22}{[1][41][]41}}
\newlabel{finiteMor}{{4.25}{41}{}{lemma.4.25}{}}
\newlabel{finiteMor@cref}{{[proposition][25][4]4.25}{[1][41][]41}}
\newlabel{dimLem1}{{4.27}{44}{}{lemma.4.27}{}}
\newlabel{dimLem1@cref}{{[corollary][27][4]4.27}{[1][44][]44}}
\@writefile{toc}{\contentsline {section}{\numberline {4.4}Fibers of Morphisms}{46}{section.4.4}}
\newlabel{fd>=r}{{4.33}{46}{}{lemma.4.33}{}}
\newlabel{fd>=r@cref}{{[proposition][33][4]4.33}{[1][46][]46}}
\newlabel{fibdim}{{4.34}{47}{}{lemma.4.34}{}}
\newlabel{fibdim@cref}{{[theorem][34][4]4.34}{[1][46][]47}}
\newlabel{chevalley}{{4.37}{49}{Chevalley's theorem}{lemma.4.37}{}}
\newlabel{chevalley@cref}{{[corollary][37][4]4.37}{[1][49][]49}}
\@writefile{toc}{\contentsline {chapter}{\numberline {5}Affine schemes / $\Spec  R$}{50}{chapter.5}}
\@writefile{lof}{\addvspace {10\p@ }}
\@writefile{lot}{\addvspace {10\p@ }}
\@writefile{toc}{\contentsline {section}{\numberline {5.1}The Zariski Topology on $\Spec  R$}{50}{section.5.1}}
\@writefile{lof}{\contentsline {figure}{\numberline {5.1.1}{\ignorespaces $\Spec  \mathbb  {R}[x]$}}{53}{figure.5.1.1}}
\@writefile{lof}{\contentsline {figure}{\numberline {5.1.2}{\ignorespaces $\Spec  \mathbb  {Z}$}}{54}{figure.5.1.2}}
\@writefile{lof}{\contentsline {figure}{\numberline {5.1.3}{\ignorespaces $\Spec  \mathbb  {C}[x]_{(x)}$ with nonempty open sets}}{55}{figure.5.1.3}}
\newlabel{picC[x]_{(x)}}{{5.1.3}{55}{$\Spec \C [x]_{(x)}$ with nonempty open sets}{figure.5.1.3}{}}
\newlabel{picC[x]_{(x)}@cref}{{[figure][3][5,1]5.1.3}{[1][54][]55}}
\newlabel{clIm}{{5.16}{56}{}{lemma.5.16}{}}
\newlabel{clIm@cref}{{[remark][16][5]5.16}{[1][56][]56}}
\@writefile{toc}{\contentsline {section}{\numberline {5.2}Structure Sheaf}{56}{section.5.2}}
\@writefile{toc}{\contentsline {chapter}{\numberline {6}Schemes}{60}{chapter.6}}
\@writefile{lof}{\addvspace {10\p@ }}
\@writefile{lot}{\addvspace {10\p@ }}
\@writefile{toc}{\contentsline {section}{\numberline {6.1}The Category of Schemes}{60}{section.6.1}}
\newlabel{lemRinSp}{{6.8}{63}{}{lemma.6.8}{}}
\newlabel{lemRinSp@cref}{{[lemma][8][6]6.8}{[1][63][]63}}
\newlabel{HomSch}{{6.9}{64}{}{lemma.6.9}{}}
\newlabel{HomSch@cref}{{[theorem][9][6]6.9}{[1][64][]64}}
\@writefile{toc}{\contentsline {section}{\numberline {6.2}Fiber Products}{69}{section.6.2}}
\@writefile{toc}{\contentsline {section}{\numberline {6.3}Schemes over Schemes}{72}{section.6.3}}
\@writefile{toc}{\contentsline {chapter}{\numberline {7}Properties of Schemes and Morphisms}{75}{chapter.7}}
\@writefile{lof}{\addvspace {10\p@ }}
\@writefile{lot}{\addvspace {10\p@ }}
\@writefile{toc}{\contentsline {section}{\numberline {7.1}Affine Local Properties}{75}{section.7.1}}
\newlabel{LoNo}{{7.3}{75}{}{lemma.7.3}{}}
\newlabel{LoNo@cref}{{[proposition][3][7]7.3}{[1][75][]75}}
\newlabel{keylemma}{{7.4}{75}{affine local}{lemma.7.4}{}}
\newlabel{keylemma@cref}{{[lemma][4][7]7.4}{[1][75][]75}}
\@writefile{toc}{\contentsline {section}{\numberline {7.2}Immersions}{77}{section.7.2}}
\newlabel{defClSu}{{7.8}{77}{closed subscheme}{lemma.7.8}{}}
\newlabel{defClSu@cref}{{[definition][8][7]7.8}{[1][77][]77}}
\newlabel{ClSuKey}{{7.11}{78}{}{lemma.7.11}{}}
\newlabel{ClSuKey@cref}{{[proposition][11][7]7.11}{[1][78][]78}}
\newlabel{ClSU}{{7.12}{78}{}{lemma.7.12}{}}
\newlabel{ClSU@cref}{{[theorem][12][7]7.12}{[1][78][]78}}
\@writefile{toc}{\contentsline {section}{\numberline {7.3}Dimensions}{82}{section.7.3}}
\newlabel{Krull2}{{7.20}{82}{Krull principal ideal theorem}{lemma.7.20}{}}
\newlabel{Krull2@cref}{{[theorem][20][7]7.20}{[1][82][]82}}
\@writefile{toc}{\contentsline {section}{\numberline {7.4}Reduced Induced Subscheme Structure}{83}{section.7.4}}
\newlabel{rissL}{{7.22}{83}{}{lemma.7.22}{}}
\newlabel{rissL@cref}{{[lemma][22][7]7.22}{[1][83][]83}}
\@writefile{toc}{\contentsline {section}{\numberline {7.5}Separated Morphisms}{84}{section.7.5}}
\newlabel{ChaSep}{{7.26}{85}{}{lemma.7.26}{}}
\newlabel{ChaSep@cref}{{[proposition][26][7]7.26}{[1][85][]85}}
\newlabel{helpSep}{{7.27}{85}{}{lemma.7.27}{}}
\newlabel{helpSep@cref}{{[lemma][27][7]7.27}{[1][85][]85}}
\@writefile{toc}{\contentsline {section}{\numberline {7.6}Valuative Criterion for Separatedness}{87}{section.7.6}}
\@writefile{lof}{\contentsline {figure}{\numberline {7.6.1}{\ignorespaces $\Spec  \mathbb  {C}[x,y]/(y^2-x^2(x+1))_{(x,y)}$}}{88}{figure.7.6.1}}
\newlabel{picexVR}{{7.6.1}{88}{$\Spec \C [x,y]/(y^2-x^2(x+1))_{(x,y)}$}{figure.7.6.1}{}}
\newlabel{picexVR@cref}{{[figure][1][7,6]7.6.1}{[1][87][]88}}
\newlabel{helplemma}{{7.32}{88}{}{lemma.7.32}{}}
\newlabel{helplemma@cref}{{[lemma][32][7]7.32}{[1][88][]88}}
\newlabel{HomVR}{{7.33}{89}{}{lemma.7.33}{}}
\newlabel{HomVR@cref}{{[lemma][33][7]7.33}{[1][89][]89}}
\newlabel{helplemma2}{{7.37}{90}{}{lemma.7.37}{}}
\newlabel{helplemma2@cref}{{[lemma][37][7]7.37}{[1][90][]90}}
\@writefile{toc}{\contentsline {section}{\numberline {7.7}Proper Morphisms}{93}{section.7.7}}
\@writefile{toc}{\contentsline {chapter}{\numberline {8}Normal Proper Curves over a Field}{97}{chapter.8}}
\@writefile{lof}{\addvspace {10\p@ }}
\@writefile{lot}{\addvspace {10\p@ }}
\newlabel{CatEqCurves}{{8.4}{99}{}{lemma.8.4}{}}
\newlabel{CatEqCurves@cref}{{[theorem][4][8]8.4}{[1][99][]99}}
\newlabel{helplemmaCurves}{{8.5}{100}{}{lemma.8.5}{}}
\newlabel{helplemmaCurves@cref}{{[lemma][5][8]8.5}{[1][100][]100}}
\newlabel{extensionCurves}{{8.6}{100}{}{lemma.8.6}{}}
\newlabel{extensionCurves@cref}{{[lemma][6][8]8.6}{[1][100][]100}}
\@writefile{toc}{\contentsline {chapter}{\numberline {9}Projective Spectrum}{102}{chapter.9}}
\@writefile{lof}{\addvspace {10\p@ }}
\@writefile{lot}{\addvspace {10\p@ }}
\@writefile{toc}{\contentsline {section}{\numberline {9.1}The Zariski Topology on $\Proj  A$}{102}{section.9.1}}
\@writefile{toc}{\contentsline {section}{\numberline {9.2}The Structure Sheaf on $\Proj  A$}{105}{section.9.2}}
\@writefile{lof}{\contentsline {figure}{\numberline {9.2.1}{\ignorespaces $\Spec  k[X^2,XY,Y^2] = \Spec  k[x_0,x_1,x_2]/(x_1^2-x_0x_2)$ in $k^3$}}{106}{figure.9.2.1}}
\@writefile{lof}{\contentsline {figure}{\numberline {9.2.2}{\ignorespaces $"\Proj  " \mathbb  {C}[x,y]$}}{106}{figure.9.2.2}}
\@writefile{toc}{\contentsline {chapter}{\numberline {10}Quasi-coherent $\mathcal  O_X$-modules}{108}{chapter.10}}
\@writefile{lof}{\addvspace {10\p@ }}
\@writefile{lot}{\addvspace {10\p@ }}
\@writefile{toc}{\contentsline {section}{\numberline {10.1}The $\sim $-Construction}{108}{section.10.1}}
\newlabel{cateq}{{10.4}{110}{}{lemma.10.4}{}}
\newlabel{cateq@cref}{{[proposition][4][10]10.4}{[1][110][]110}}
\newlabel{theQC}{{10.7}{111}{}{lemma.10.7}{}}
\newlabel{theQC@cref}{{[theorem][7][10]10.7}{[1][111][]111}}
\@writefile{toc}{\contentsline {section}{\numberline {10.2}Construction on $\mathcal  O_X$-modules}{114}{section.10.2}}
\newlabel{pushforwardquasi}{{10.14}{114}{}{lemma.10.14}{}}
\newlabel{pushforwardquasi@cref}{{[lemma][14][10]10.14}{[1][114][]114}}
\@writefile{toc}{\contentsline {section}{\numberline {10.3}Coherent Sheaves}{116}{section.10.3}}
\@writefile{toc}{\contentsline {section}{\numberline {10.4}Quasi-coherent Sheaves on $\Proj  A$}{117}{section.10.4}}
\newlabel{helplemmaProjA}{{10.37}{122}{}{lemma.10.37}{}}
\newlabel{helplemmaProjA@cref}{{[lemma][37][10]10.37}{[1][122][]122}}
\newlabel{QChelpEQ}{{10.4.1}{122}{Quasi-coherent Sheaves on $\Proj A$}{equation.10.4.1}{}}
\newlabel{QChelpEQ@cref}{{[equation][1][10,4]10.4.1}{[1][122][]122}}
\@writefile{toc}{\contentsline {section}{\numberline {10.5}Locally Free Sheaves and Vector Bundles}{124}{section.10.5}}
\newlabel{cycle1}{{10.5.1}{124}{}{equation.10.5.1}{}}
\newlabel{cycle1@cref}{{[equation][1][10,5]10.5.1}{[1][124][]124}}
\newlabel{cycle2}{{10.5.2}{124}{}{equation.10.5.2}{}}
\newlabel{cycle2@cref}{{[equation][2][10,5]10.5.2}{[1][124][]124}}
\@writefile{toc}{\contentsline {section}{\numberline {10.6}Relative $\Spec  $ Construction}{126}{section.10.6}}
\newlabel{represent}{{10.43}{126}{}{lemma.10.43}{}}
\newlabel{represent@cref}{{[proposition][43][10]10.43}{[1][126][]126}}
\newlabel{lemEx}{{10.44}{126}{}{lemma.10.44}{}}
\newlabel{lemEx@cref}{{[lemma][44][10]10.44}{[1][126][]126}}
\newlabel{algrem1}{{10.45}{127}{}{lemma.10.45}{}}
\newlabel{algrem1@cref}{{[remark][45][10]10.45}{[1][127][]127}}
\newlabel{eqVB}{{10.48}{127}{}{lemma.10.48}{}}
\newlabel{eqVB@cref}{{[corollary][48][10]10.48}{[1][127][]127}}
\@writefile{toc}{\contentsline {section}{\numberline {10.7}Locally Free Sheaves and Vector Bundles II}{128}{section.10.7}}
\newlabel{VecBunLocFr}{{10.7}{128}{Locally Free Sheaves and Vector Bundles II}{section.10.7}{}}
\newlabel{VecBunLocFr@cref}{{[section][7][10]10.7}{[1][128][]128}}
\@writefile{toc}{\contentsline {chapter}{\numberline {11}Regularity and Smoothness}{132}{chapter.11}}
\@writefile{lof}{\addvspace {10\p@ }}
\@writefile{lot}{\addvspace {10\p@ }}
\@writefile{toc}{\contentsline {section}{\numberline {11.1}Regularity}{132}{section.11.1}}
\newlabel{ineqCTS}{{11.1}{132}{}{lemma.11.1}{}}
\newlabel{ineqCTS@cref}{{[proposition][1][11]11.1}{[1][132][]132}}
\newlabel{regularCurve}{{11.5}{133}{}{lemma.11.5}{}}
\newlabel{regularCurve@cref}{{[lemma][5][11]11.5}{[1][133][]133}}
\newlabel{HCA}{{11.6}{133}{}{lemma.11.6}{}}
\newlabel{HCA@cref}{{[proposition][6][11]11.6}{[1][133][]133}}
\newlabel{regularclosedpoints}{{11.7}{134}{}{lemma.11.7}{}}
\newlabel{regularclosedpoints@cref}{{[corollary][7][11]11.7}{[1][134][]134}}
\newlabel{jacobi}{{11.8}{134}{Jacobi Criterion}{lemma.11.8}{}}
\newlabel{jacobi@cref}{{[theorem][8][11]11.8}{[1][134][]134}}
\@writefile{lof}{\contentsline {figure}{\numberline {11.1.1}{\ignorespaces $y^2=x^2(x+1)$, singular at $(0,0)$}}{135}{figure.11.1.1}}
\newlabel{y^2-x^3-x^2}{{11.1.1}{135}{$y^2=x^2(x+1)$, singular at $(0,0)$}{figure.11.1.1}{}}
\newlabel{y^2-x^3-x^2@cref}{{[figure][1][11,1]11.1.1}{[1][134][]135}}
\@writefile{toc}{\contentsline {section}{\numberline {11.2}K\IeC {\"a}hler Differentials}{136}{section.11.2}}
\newlabel{universalDer}{{11.12}{137}{}{lemma.11.12}{}}
\newlabel{universalDer@cref}{{[proposition][12][11]11.12}{[1][137][]137}}
\newlabel{exactKaehler}{{11.14}{139}{}{lemma.11.14}{}}
\newlabel{exactKaehler@cref}{{[proposition][14][11]11.14}{[1][139][]139}}
\newlabel{properseparated}{{11.20}{144}{}{lemma.11.20}{}}
\newlabel{properseparated@cref}{{[lemma][20][11]11.20}{[1][144][]144}}
\@writefile{toc}{\contentsline {section}{\numberline {11.3}Regular versus Smooth}{145}{section.11.3}}
\newlabel{regularsmooth}{{11.27}{145}{}{lemma.11.27}{}}
\newlabel{regularsmooth@cref}{{[theorem][27][11]11.27}{[1][145][]145}}
\@writefile{toc}{\contentsline {section}{\numberline {11.4}Blow-up}{147}{section.11.4}}
\@writefile{toc}{\contentsline {section}{\numberline {11.5}Du Val Singularities}{150}{section.11.5}}
\@writefile{toc}{\contentsline {part}{II\hspace  {1em}Algebraic Geometry II}{152}{part.2}}
\@writefile{toc}{\contentsline {chapter}{\numberline {12}Sheaf Cohomology}{153}{chapter.12}}
\@writefile{lof}{\addvspace {10\p@ }}
\@writefile{lot}{\addvspace {10\p@ }}
\@writefile{toc}{\contentsline {section}{\numberline {12.1}Motivation}{153}{section.12.1}}
\@writefile{toc}{\contentsline {section}{\numberline {12.2}Definition, Existence and Uniqueness}{155}{section.12.2}}
\newlabel{exH}{{12.5}{156}{}{lemma.12.5}{}}
\newlabel{exH@cref}{{[theorem][5][12]12.5}{[1][156][]156}}
\newlabel{enoughinjectives}{{12.7}{157}{}{lemma.12.7}{}}
\newlabel{enoughinjectives@cref}{{[proposition][7][12]12.7}{[1][157][]157}}
\newlabel{defH1}{{12.2.1}{157}{Definition, Existence and Uniqueness}{equation.12.2.1}{}}
\newlabel{defH1@cref}{{[equation][1][12,2]12.2.1}{[1][157][]157}}
\@writefile{toc}{\contentsline {section}{\numberline {12.3}Construction using injective Resolutions}{158}{section.12.3}}
\newlabel{undelta}{{12.11}{160}{}{lemma.12.11}{}}
\newlabel{undelta@cref}{{[theorem][11][12]12.11}{[1][160][]160}}
\newlabel{flabby->acyclic}{{12.18}{162}{}{lemma.12.18}{}}
\newlabel{flabby->acyclic@cref}{{[proposition][18][12]12.18}{[1][162][]162}}
\newlabel{flabbyhelp}{{12.3}{162}{Construction using injective Resolutions}{Item.183}{}}
\newlabel{flabbyhelp@cref}{{[section][3][12]12.3}{[1][162][]162}}
\@writefile{toc}{\contentsline {section}{\numberline {12.4}Serre Vanishing Theorem}{163}{section.12.4}}
\newlabel{Serre}{{12.24}{163}{Serre}{lemma.12.24}{}}
\newlabel{Serre@cref}{{[theorem][24][12]12.24}{[1][163][]163}}
\newlabel{helpSerre}{{12.25}{164}{}{lemma.12.25}{}}
\newlabel{helpSerre@cref}{{[lemma][25][12]12.25}{[1][164][]164}}
\@writefile{toc}{\contentsline {chapter}{\numberline {13}\v Cech Cohomology}{169}{chapter.13}}
\@writefile{lof}{\addvspace {10\p@ }}
\@writefile{lot}{\addvspace {10\p@ }}
\newlabel{Cech}{{13}{169}{\v Cech Cohomology}{chapter.13}{}}
\newlabel{Cech@cref}{{[chapter][13][]13}{[1][169][]169}}
\@writefile{toc}{\contentsline {section}{\numberline {13.1}Definition and Examples}{169}{section.13.1}}
\@writefile{lof}{\contentsline {figure}{\numberline {13.1.1}{\ignorespaces Covering of $S^1$}}{170}{figure.13.1.1}}
\newlabel{coveringS1}{{13.1.1}{170}{Covering of $S^1$}{figure.13.1.1}{}}
\newlabel{coveringS1@cref}{{[figure][1][13,1]13.1.1}{[1][170][]170}}
\@writefile{toc}{\contentsline {section}{\numberline {13.2}\v Cech Cohomology vs. Sheaf Cohomology}{172}{section.13.2}}
\newlabel{cechsheaf}{{13.3}{172}{}{lemma.13.3}{}}
\newlabel{cechsheaf@cref}{{[theorem][3][13]13.3}{[1][172][]172}}
\newlabel{refmap}{{13.6}{173}{}{lemma.13.6}{}}
\newlabel{refmap@cref}{{[proposition][6][13]13.6}{[1][173][]173}}
\newlabel{CechSheaf}{{13.8}{173}{}{lemma.13.8}{}}
\newlabel{CechSheaf@cref}{{[theorem][8][13]13.8}{[1][173][]173}}
\newlabel{lemma1}{{13.11}{175}{}{lemma.13.11}{}}
\newlabel{lemma1@cref}{{[lemma][11][13]13.11}{[1][175][]175}}
\newlabel{lemma2}{{13.12}{175}{Sheafified \v Cech complex}{lemma.13.12}{}}
\newlabel{lemma2@cref}{{[lemma][12][13]13.12}{[1][175][]175}}
\newlabel{lemma3}{{13.13}{176}{}{lemma.13.13}{}}
\newlabel{lemma3@cref}{{[lemma][13][13]13.13}{[1][176][]176}}
\newlabel{lemma4}{{13.14}{177}{}{lemma.13.14}{}}
\newlabel{lemma4@cref}{{[lemma][14][13]13.14}{[1][177][]177}}
\@writefile{toc}{\contentsline {chapter}{\numberline {14}Spectral Sequence of a Double Complex}{181}{chapter.14}}
\@writefile{lof}{\addvspace {10\p@ }}
\@writefile{lot}{\addvspace {10\p@ }}
\@writefile{toc}{\contentsline {section}{\numberline {14.1}Motivation and Definition}{181}{section.14.1}}
\newlabel{filtration}{{14.2}{183}{}{lemma.14.2}{}}
\newlabel{filtration@cref}{{[theorem][2][14]14.2}{[1][183][]183}}
\@writefile{toc}{\contentsline {section}{\numberline {14.2}Application in Sheaf and \v Cech Cohomology}{184}{section.14.2}}
